[
	{
		"_id": "co-100",
		"_parentId": "course",
		"_type": "page",
		"_classes": "",
		"height":"570",
		"title": "Introduction",
		"displayTitle": "Introduction",
		"pageBody": "Discover how Facebook’s Rights Manager helps publishers monitor and protect content. ",
		"body": "Discover how Facebook’s Rights Manager helps publishers monitor and protect content. ",
		"_graphic": {
			"src": "course/en/images/RM_intro.png",
			"alt": "Overview"
		},
		"linkText": "View",
		"durationLabel": "Duration:",
		"duration": "2 mins",
		"_pageLevelProgress": {
			"_isEnabled": true
		}
	},
	{
		"_id": "co-200",
		"_parentId": "course",
		"_type": "page",
		"_classes": "",
		"height":"570",
		"title": "Fundamentals",
		"displayTitle": "Fundamentals",
		"pageBody": "Find out how to access Rights Manager, and what content is eligible.",
		"body": "Find out how to access Rights Manager, and what content is eligible.",
		"_graphic": {
			"src": "course/en/images/RM_policies.png",
			"alt": "Overview"
		},
		"linkText": "View",
		"durationLabel": "Duration:",
		"duration": "3 mins",
		"_pageLevelProgress": {
			"_isEnabled": true
		}
	},
    {
		"_id": "co-300",
		"_parentId": "course",
		"_type": "page",
		"_classes": "",
		"height":"570",
		"title": "Reference Files",
		"displayTitle": "Reference Files",
		"pageBody": "Learn how to create a reference library in Rights Manager to establish ownership of video and audio content on Facebook and Instagram.",
		"body": "Learn how to create a reference library in Rights Manager to establish ownership of video and audio content on Facebook and Instagram.",
		"_graphic": {
			"src": "course/en/images/RM_start.png",
			"alt": "Overview"
		},
		"linkText": "View",
		"durationLabel": "Duration:",
		"duration": "4 mins",
		"_pageLevelProgress": {
			"_isEnabled": true
		}
	},
    {
		"_id": "co-400",
		"_parentId": "course",
		"_type": "page",
		"_classes": "",
		"height":"570",
		"title": "Match Rules",
		"displayTitle": "Match Rules",
		"pageBody": "Learn to use match rules to specify when to allow or restrict use of your content on Facebook and Instagram.",
		"body": "Learn to use match rules to specify when to allow or restrict use of your content on Facebook and Instagram.",
		"_graphic": {
			"src": "course/en/images/RM_start.png",
			"alt": "Overview"
		},
		"linkText": "View",
		"durationLabel": "Duration:",
		"duration": "6 mins",
		"_pageLevelProgress": {
			"_isEnabled": true
		}
	},
	{
		"_id": "co-500",
		"_parentId": "course",
		"_type": "page",
		"_classes": "",
		"height":"570",
		"title": "Step by Step",
		"displayTitle": "Step by Step",
		"pageBody": "Explore actions that rights owners can take if their content is posted without permission.",
		"body": "Explore actions that rights owners can take if their content is posted without permission.",
		"_graphic": {
			"src": "course/en/images/RM_step-by-step.png",
			"alt": "Overview"
		},
		"linkText": "View",
		"durationLabel": "Duration:",
		"duration": "5 mins",
		"_pageLevelProgress": {
			"_isEnabled": true
		}
	},
	{
		"_id": "co-600",
		"_parentId": "course",
		"_type": "page",
		"_classes": "",
		"height":"570",
		"title": "Manage Content at Scale",
		"displayTitle": "Manage Content at Scale",
		"pageBody": "Enlist a developer to tap into an API that can unlock bulk-uploading and other advanced actions. ",
		"body": "Enlist a developer to tap into an API that can unlock bulk-uploading and other advanced actions. ",
		"_graphic": {
			"src": "course/en/images/RM_scale.png",
			"alt": "Overview"
		},
		"linkText": "View",
		"durationLabel": "Duration:",
		"duration": "2 mins",
		"_pageLevelProgress": {
			"_isEnabled": true
		}
	},
	{
		"_id": "co-700",
		"_parentId": "course",
		"_type": "page",
		"_classes": "",
		"height":"570",
		"title": "Wrap-Up and Best Practices",
		"displayTitle": "Wrap-Up and Best Practices",
		"pageBody": "Review a summary of top takeaways from this course.",
		"body": "Review a summary of top takeaways from this course.",
		"_graphic": {
			"src": "course/en/images/RM_wrap-up.png",
			"alt": "Overview"
		},
		"linkText": "View",
		"durationLabel": "Duration:",
		"duration": "4 mins",
		"_pageLevelProgress": {
			"_isEnabled": true
		}
	},
	{
		"_id": "co-800",
		"_parentId": "course",
		"_type": "page",
		"_classes": "",
		"height":"570",
		"title": "Knowledge Check ",
		"displayTitle": "Knowledge Check ",
		"pageBody": "Take a quick quiz on everything you’ve learned.",
		"body": "Take a quick quiz on everything you’ve learned.",
		"_graphic": {
			"src": "course/en/images/RM_check.png",
			"alt": "Overview"
		},
		"linkText": "View",
		"durationLabel": "Duration:",
		"duration": "4 mins",
		"_pageLevelProgress": {
			"_isEnabled": true
		}
	}
]
